{
  "artifactGenerations" : [ ],
  "artifactId" : "service-store",
  "groupId" : "org.finos.legend.showcase",
  "metamodelDependencies" : [ ],
  "projectDependencies" : [ ],
  "projectId" : "UAT-41664972",
  "projectStructureVersion" : {
    "extensionVersion" : 2,
    "version" : 12
  },
  "projectType" : null
}